<?xml version="1.0" encoding="UTF-8" standalone="no"?>
<!--Created using Glyph Designer - http://www.71squared.com/glyphdesigner-->
<font>
    <info face="Helvetica Neue" size="30" bold="1" italic="0" chasrset="" unicode="0" stretchH="100" smooth="1" aa="1" padding="0,0,0,0" spacing="2,2"/>
    <common lineHeight="37" base="29" scaleW="512" scaleH="256" pages="1" packed="0"/>
    <pages>
        <page id="0" file="CopyFont.png"/>
    </pages>
    <chars count="95">
        <char id="32" x="270" y="133" width="0" height="0" xoffset="0" yoffset="33" xadvance="8" page="0" chnl="0" letter="space"/>
        <char id="33" x="460" y="72" width="12" height="29" xoffset="-0" yoffset="4" xadvance="8" page="0" chnl="0" letter="!"/>
        <char id="34" x="128" y="133" width="16" height="17" xoffset="1" yoffset="4" xadvance="14" page="0" chnl="0" letter="&quot;"/>
        <char id="35" x="27" y="103" width="22" height="28" xoffset="-1" yoffset="5" xadvance="17" page="0" chnl="0" letter="#"/>
        <char id="36" x="15" y="2" width="24" height="35" xoffset="-2" yoffset="1" xadvance="17" page="0" chnl="0" letter="$"/>
        <char id="37" x="196" y="2" width="33" height="30" xoffset="0" yoffset="4" xadvance="30" page="0" chnl="0" letter="%"/>
        <char id="38" x="322" y="2" width="27" height="30" xoffset="-1" yoffset="3" xadvance="21" page="0" chnl="0" letter="&amp;"/>
        <char id="39" x="160" y="133" width="11" height="17" xoffset="1" yoffset="4" xadvance="8" page="0" chnl="0" letter="'"/>
        <char id="40" x="81" y="2" width="15" height="35" xoffset="-0" yoffset="3" xadvance="9" page="0" chnl="0" letter="("/>
        <char id="41" x="98" y="2" width="15" height="35" xoffset="-2" yoffset="3" xadvance="9" page="0" chnl="0" letter=")"/>
        <char id="42" x="83" y="133" width="18" height="18" xoffset="-1" yoffset="4" xadvance="12" page="0" chnl="0" letter="*"/>
        <char id="43" x="420" y="103" width="23" height="23" xoffset="-1" yoffset="10" xadvance="18" page="0" chnl="0" letter="+"/>
        <char id="44" x="146" y="133" width="12" height="17" xoffset="-0" yoffset="21" xadvance="8" page="0" chnl="0" letter=","/>
        <char id="45" x="227" y="133" width="17" height="11" xoffset="-0" yoffset="16" xadvance="12" page="0" chnl="0" letter="-"/>
        <char id="46" x="213" y="133" width="12" height="12" xoffset="-0" yoffset="21" xadvance="8" page="0" chnl="0" letter="."/>
        <char id="47" x="429" y="2" width="19" height="30" xoffset="-2" yoffset="3" xadvance="11" page="0" chnl="0" letter="/"/>
        <char id="48" x="152" y="72" width="23" height="29" xoffset="-1" yoffset="4" xadvance="17" page="0" chnl="0" letter="0"/>
        <char id="49" x="75" y="103" width="17" height="28" xoffset="0" yoffset="5" xadvance="17" page="0" chnl="0" letter="1"/>
        <char id="50" x="302" y="72" width="23" height="29" xoffset="-1" yoffset="4" xadvance="17" page="0" chnl="0" letter="2"/>
        <char id="51" x="177" y="72" width="23" height="29" xoffset="-1" yoffset="4" xadvance="17" page="0" chnl="0" letter="3"/>
        <char id="52" x="2" y="103" width="23" height="28" xoffset="-2" yoffset="5" xadvance="17" page="0" chnl="0" letter="4"/>
        <char id="53" x="277" y="72" width="23" height="29" xoffset="-1" yoffset="4" xadvance="17" page="0" chnl="0" letter="5"/>
        <char id="54" x="102" y="72" width="23" height="29" xoffset="-1" yoffset="4" xadvance="17" page="0" chnl="0" letter="6"/>
        <char id="55" x="51" y="103" width="22" height="28" xoffset="-1" yoffset="5" xadvance="17" page="0" chnl="0" letter="7"/>
        <char id="56" x="77" y="72" width="23" height="29" xoffset="-2" yoffset="4" xadvance="17" page="0" chnl="0" letter="8"/>
        <char id="57" x="127" y="72" width="23" height="29" xoffset="-1" yoffset="4" xadvance="17" page="0" chnl="0" letter="9"/>
        <char id="58" x="45" y="133" width="12" height="23" xoffset="-0" yoffset="10" xadvance="8" page="0" chnl="0" letter=":"/>
        <char id="59" x="113" y="103" width="12" height="28" xoffset="-0" yoffset="10" xadvance="8" page="0" chnl="0" letter=";"/>
        <char id="60" x="395" y="103" width="23" height="23" xoffset="-1" yoffset="10" xadvance="18" page="0" chnl="0" letter="&lt;"/>
        <char id="61" x="103" y="133" width="23" height="17" xoffset="-1" yoffset="13" xadvance="18" page="0" chnl="0" letter="="/>
        <char id="62" x="370" y="103" width="23" height="23" xoffset="-1" yoffset="10" xadvance="18" page="0" chnl="0" letter=">"/>
        <char id="63" x="327" y="72" width="22" height="29" xoffset="-1" yoffset="4" xadvance="17" page="0" chnl="0" letter="?"/>
        <char id="64" x="231" y="2" width="29" height="30" xoffset="-1" yoffset="3" xadvance="24" page="0" chnl="0" letter="@"/>
        <char id="65" x="35" y="41" width="28" height="29" xoffset="-2" yoffset="4" xadvance="21" page="0" chnl="0" letter="A"/>
        <char id="66" x="351" y="41" width="25" height="29" xoffset="0" yoffset="4" xadvance="21" page="0" chnl="0" letter="B"/>
        <char id="67" x="351" y="2" width="27" height="30" xoffset="-1" yoffset="3" xadvance="22" page="0" chnl="0" letter="C"/>
        <char id="68" x="239" y="41" width="26" height="29" xoffset="0" yoffset="4" xadvance="22" page="0" chnl="0" letter="D"/>
        <char id="69" x="432" y="41" width="24" height="29" xoffset="0" yoffset="4" xadvance="19" page="0" chnl="0" letter="E"/>
        <char id="70" x="202" y="72" width="23" height="29" xoffset="0" yoffset="4" xadvance="18" page="0" chnl="0" letter="F"/>
        <char id="71" x="293" y="2" width="27" height="30" xoffset="-1" yoffset="3" xadvance="23" page="0" chnl="0" letter="G"/>
        <char id="72" x="267" y="41" width="26" height="29" xoffset="0" yoffset="4" xadvance="22" page="0" chnl="0" letter="H"/>
        <char id="73" x="418" y="72" width="12" height="29" xoffset="0" yoffset="4" xadvance="9" page="0" chnl="0" letter="I"/>
        <char id="74" x="351" y="72" width="22" height="29" xoffset="-2" yoffset="4" xadvance="17" page="0" chnl="0" letter="J"/>
        <char id="75" x="125" y="41" width="27" height="29" xoffset="0" yoffset="4" xadvance="22" page="0" chnl="0" letter="K"/>
        <char id="76" x="227" y="72" width="23" height="29" xoffset="0" yoffset="4" xadvance="18" page="0" chnl="0" letter="L"/>
        <char id="77" x="2" y="41" width="31" height="29" xoffset="0" yoffset="4" xadvance="27" page="0" chnl="0" letter="M"/>
        <char id="78" x="295" y="41" width="26" height="29" xoffset="0" yoffset="4" xadvance="22" page="0" chnl="0" letter="N"/>
        <char id="79" x="262" y="2" width="29" height="30" xoffset="-1" yoffset="3" xadvance="23" page="0" chnl="0" letter="O"/>
        <char id="80" x="405" y="41" width="25" height="29" xoffset="0" yoffset="4" xadvance="20" page="0" chnl="0" letter="P"/>
        <char id="81" x="165" y="2" width="29" height="31" xoffset="-1" yoffset="4" xadvance="23" page="0" chnl="0" letter="Q"/>
        <char id="82" x="211" y="41" width="26" height="29" xoffset="0" yoffset="4" xadvance="22" page="0" chnl="0" letter="R"/>
        <char id="83" x="380" y="2" width="26" height="30" xoffset="-1" yoffset="3" xadvance="19" page="0" chnl="0" letter="S"/>
        <char id="84" x="378" y="41" width="25" height="29" xoffset="-2" yoffset="4" xadvance="18" page="0" chnl="0" letter="T"/>
        <char id="85" x="183" y="41" width="26" height="29" xoffset="-0" yoffset="4" xadvance="22" page="0" chnl="0" letter="U"/>
        <char id="86" x="154" y="41" width="27" height="29" xoffset="-2" yoffset="4" xadvance="19" page="0" chnl="0" letter="V"/>
        <char id="87" x="450" y="2" width="36" height="29" xoffset="-2" yoffset="4" xadvance="28" page="0" chnl="0" letter="W"/>
        <char id="88" x="65" y="41" width="28" height="29" xoffset="-2" yoffset="4" xadvance="20" page="0" chnl="0" letter="X"/>
        <char id="89" x="95" y="41" width="28" height="29" xoffset="-2" yoffset="4" xadvance="20" page="0" chnl="0" letter="Y"/>
        <char id="90" x="323" y="41" width="26" height="29" xoffset="-1" yoffset="4" xadvance="19" page="0" chnl="0" letter="Z"/>
        <char id="91" x="115" y="2" width="15" height="35" xoffset="0" yoffset="3" xadvance="10" page="0" chnl="0" letter="["/>
        <char id="92" x="408" y="2" width="19" height="30" xoffset="-2" yoffset="3" xadvance="11" page="0" chnl="0" letter="\"/>
        <char id="93" x="132" y="2" width="15" height="35" xoffset="-2" yoffset="3" xadvance="10" page="0" chnl="0" letter="]"/>
        <char id="94" x="59" y="133" width="22" height="19" xoffset="-0" yoffset="5" xadvance="18" page="0" chnl="0" letter="^"/>
        <char id="95" x="246" y="133" width="22" height="9" xoffset="-2" yoffset="28" xadvance="15" page="0" chnl="0" letter="_"/>
        <char id="96" x="196" y="133" width="15" height="12" xoffset="-3" yoffset="4" xadvance="8" page="0" chnl="0" letter="`"/>
        <char id="97" x="203" y="103" width="23" height="24" xoffset="-1" yoffset="9" xadvance="17" page="0" chnl="0" letter="a"/>
        <char id="98" x="52" y="72" width="23" height="29" xoffset="-0" yoffset="4" xadvance="18" page="0" chnl="0" letter="b"/>
        <char id="99" x="178" y="103" width="23" height="24" xoffset="-1" yoffset="9" xadvance="17" page="0" chnl="0" letter="c"/>
        <char id="100" x="27" y="72" width="23" height="29" xoffset="-1" yoffset="4" xadvance="18" page="0" chnl="0" letter="d"/>
        <char id="101" x="153" y="103" width="23" height="24" xoffset="-1" yoffset="9" xadvance="17" page="0" chnl="0" letter="e"/>
        <char id="102" x="399" y="72" width="17" height="29" xoffset="-2" yoffset="4" xadvance="10" page="0" chnl="0" letter="f"/>
        <char id="103" x="483" y="41" width="23" height="29" xoffset="-1" yoffset="10" xadvance="18" page="0" chnl="0" letter="g"/>
        <char id="104" x="375" y="72" width="22" height="29" xoffset="-0" yoffset="4" xadvance="18" page="0" chnl="0" letter="h"/>
        <char id="105" x="432" y="72" width="12" height="29" xoffset="-0" yoffset="4" xadvance="8" page="0" chnl="0" letter="i"/>
        <char id="106" x="149" y="2" width="14" height="34" xoffset="-3" yoffset="4" xadvance="8" page="0" chnl="0" letter="j"/>
        <char id="107" x="252" y="72" width="23" height="29" xoffset="0" yoffset="4" xadvance="17" page="0" chnl="0" letter="k"/>
        <char id="108" x="446" y="72" width="12" height="29" xoffset="-0" yoffset="4" xadvance="8" page="0" chnl="0" letter="l"/>
        <char id="109" x="286" y="103" width="31" height="23" xoffset="-0" yoffset="10" xadvance="27" page="0" chnl="0" letter="m"/>
        <char id="110" x="445" y="103" width="22" height="23" xoffset="-0" yoffset="10" xadvance="18" page="0" chnl="0" letter="n"/>
        <char id="111" x="127" y="103" width="24" height="24" xoffset="-1" yoffset="9" xadvance="18" page="0" chnl="0" letter="o"/>
        <char id="112" x="458" y="41" width="23" height="29" xoffset="-0" yoffset="9" xadvance="18" page="0" chnl="0" letter="p"/>
        <char id="113" x="2" y="72" width="23" height="29" xoffset="-1" yoffset="9" xadvance="18" page="0" chnl="0" letter="q"/>
        <char id="114" x="26" y="133" width="17" height="23" xoffset="-0" yoffset="10" xadvance="12" page="0" chnl="0" letter="r"/>
        <char id="115" x="228" y="103" width="22" height="24" xoffset="-1" yoffset="9" xadvance="16" page="0" chnl="0" letter="s"/>
        <char id="116" x="94" y="103" width="17" height="28" xoffset="-2" yoffset="5" xadvance="11" page="0" chnl="0" letter="t"/>
        <char id="117" x="469" y="103" width="22" height="23" xoffset="-0" yoffset="10" xadvance="18" page="0" chnl="0" letter="u"/>
        <char id="118" x="345" y="103" width="23" height="23" xoffset="-2" yoffset="10" xadvance="16" page="0" chnl="0" letter="v"/>
        <char id="119" x="252" y="103" width="32" height="23" xoffset="-2" yoffset="10" xadvance="24" page="0" chnl="0" letter="w"/>
        <char id="120" x="319" y="103" width="24" height="23" xoffset="-2" yoffset="10" xadvance="16" page="0" chnl="0" letter="x"/>
        <char id="121" x="474" y="72" width="23" height="28" xoffset="-2" yoffset="10" xadvance="16" page="0" chnl="0" letter="y"/>
        <char id="122" x="2" y="133" width="22" height="23" xoffset="-1" yoffset="10" xadvance="16" page="0" chnl="0" letter="z"/>
        <char id="123" x="41" y="2" width="18" height="35" xoffset="-2" yoffset="3" xadvance="10" page="0" chnl="0" letter="{"/>
        <char id="124" x="2" y="2" width="11" height="37" xoffset="-0" yoffset="2" xadvance="7" page="0" chnl="0" letter="|"/>
        <char id="125" x="61" y="2" width="18" height="35" xoffset="-2" yoffset="3" xadvance="10" page="0" chnl="0" letter="}"/>
        <char id="126" x="173" y="133" width="21" height="13" xoffset="0" yoffset="15" xadvance="18" page="0" chnl="0" letter="~"/>
    </chars>
    <kernings count="96">
        <kerning first="65" second="84" amount="-3"/>
        <kerning first="65" second="86" amount="-1"/>
        <kerning first="65" second="87" amount="-1"/>
        <kerning first="65" second="89" amount="-2"/>
        <kerning first="65" second="118" amount="-1"/>
        <kerning first="65" second="119" amount="-1"/>
        <kerning first="65" second="121" amount="-1"/>
        <kerning first="70" second="44" amount="-5"/>
        <kerning first="70" second="46" amount="-5"/>
        <kerning first="70" second="65" amount="-2"/>
        <kerning first="76" second="84" amount="-3"/>
        <kerning first="76" second="86" amount="-3"/>
        <kerning first="76" second="87" amount="-2"/>
        <kerning first="76" second="89" amount="-3"/>
        <kerning first="76" second="121" amount="-1"/>
        <kerning first="77" second="119" amount="4"/>
        <kerning first="77" second="120" amount="3"/>
        <kerning first="80" second="44" amount="-5"/>
        <kerning first="80" second="46" amount="-5"/>
        <kerning first="80" second="65" amount="-2"/>
        <kerning first="81" second="89" amount="2"/>
        <kerning first="81" second="90" amount="1"/>
        <kerning first="82" second="84" amount="-1"/>
        <kerning first="82" second="86" amount="-1"/>
        <kerning first="82" second="87" amount="-1"/>
        <kerning first="82" second="89" amount="-1"/>
        <kerning first="84" second="44" amount="-3"/>
        <kerning first="84" second="45" amount="-4"/>
        <kerning first="84" second="46" amount="-3"/>
        <kerning first="84" second="58" amount="-3"/>
        <kerning first="84" second="59" amount="-3"/>
        <kerning first="84" second="65" amount="-3"/>
        <kerning first="84" second="97" amount="-3"/>
        <kerning first="84" second="99" amount="-3"/>
        <kerning first="84" second="101" amount="-3"/>
        <kerning first="84" second="111" amount="-3"/>
        <kerning first="84" second="114" amount="-3"/>
        <kerning first="84" second="115" amount="-3"/>
        <kerning first="84" second="117" amount="-3"/>
        <kerning first="84" second="119" amount="-3"/>
        <kerning first="84" second="121" amount="-3"/>
        <kerning first="86" second="44" amount="-4"/>
        <kerning first="86" second="45" amount="-2"/>
        <kerning first="86" second="46" amount="-4"/>
        <kerning first="86" second="58" amount="-1"/>
        <kerning first="86" second="59" amount="-1"/>
        <kerning first="86" second="65" amount="-1"/>
        <kerning first="86" second="97" amount="-2"/>
        <kerning first="86" second="101" amount="-2"/>
        <kerning first="86" second="105" amount="-1"/>
        <kerning first="86" second="111" amount="-2"/>
        <kerning first="86" second="114" amount="-1"/>
        <kerning first="86" second="117" amount="-1"/>
        <kerning first="86" second="121" amount="-1"/>
        <kerning first="87" second="44" amount="-2"/>
        <kerning first="87" second="46" amount="-2"/>
        <kerning first="87" second="58" amount="-1"/>
        <kerning first="87" second="59" amount="-1"/>
        <kerning first="87" second="65" amount="-1"/>
        <kerning first="87" second="97" amount="-1"/>
        <kerning first="87" second="101" amount="-2"/>
        <kerning first="87" second="111" amount="-2"/>
        <kerning first="87" second="114" amount="-1"/>
        <kerning first="87" second="117" amount="-1"/>
        <kerning first="89" second="44" amount="-4"/>
        <kerning first="89" second="45" amount="-3"/>
        <kerning first="89" second="46" amount="-4"/>
        <kerning first="89" second="58" amount="-3"/>
        <kerning first="89" second="59" amount="-3"/>
        <kerning first="89" second="65" amount="-2"/>
        <kerning first="89" second="97" amount="-3"/>
        <kerning first="89" second="101" amount="-3"/>
        <kerning first="89" second="105" amount="-1"/>
        <kerning first="89" second="111" amount="-3"/>
        <kerning first="89" second="112" amount="-2"/>
        <kerning first="89" second="113" amount="-3"/>
        <kerning first="89" second="117" amount="-2"/>
        <kerning first="89" second="118" amount="-2"/>
        <kerning first="97" second="78" amount="-2"/>
        <kerning first="102" second="102" amount="-1"/>
        <kerning first="114" second="44" amount="-3"/>
        <kerning first="114" second="45" amount="-2"/>
        <kerning first="114" second="46" amount="-3"/>
        <kerning first="114" second="99" amount="-1"/>
        <kerning first="114" second="100" amount="-1"/>
        <kerning first="114" second="101" amount="-1"/>
        <kerning first="114" second="103" amount="-1"/>
        <kerning first="114" second="110" amount="1"/>
        <kerning first="114" second="111" amount="-1"/>
        <kerning first="114" second="113" amount="-1"/>
        <kerning first="118" second="44" amount="-2"/>
        <kerning first="118" second="46" amount="-2"/>
        <kerning first="119" second="44" amount="-2"/>
        <kerning first="119" second="46" amount="-2"/>
        <kerning first="121" second="44" amount="-2"/>
        <kerning first="121" second="46" amount="-2"/>
    </kernings>
</font>